{"type":"internal","split":{"type":"continuous","featureIndex":0,"threshold":43.0}}
{"type":"internal","split":{"type":"continuous","featureIndex":2,"threshold":0.0}}
{"type":"internal","split":{"type":"continuous","featureIndex":3,"threshold":5.62}}
{"type":"internal","split":{"type":"continuous","featureIndex":5,"threshold":3363.0}}
{"type":"leaf","values":[26.0,0.0]}
{"type":"internal","split":{"type":"continuous","featureIndex":5,"threshold":3442.0}}
{"type":"leaf","values":[0.0,1.0]}
{"type":"leaf","values":[7.0,0.0]}
{"type":"internal","split":{"type":"continuous","featureIndex":4,"threshold":9.0}}
{"type":"leaf","values":[22.0,0.0]}
{"type":"internal","split":{"type":"continuous","featureIndex":3,"threshold":6.83}}
{"type":"leaf","values":[3.0,8.0]}
{"type":"leaf","values":[3.0,0.0]}
{"type":"internal","split":{"type":"continuous","featureIndex":4,"threshold":9.0}}
{"type":"internal","split":{"type":"continuous","featureIndex":5,"threshold":3814.0}}
{"type":"internal","split":{"type":"continuous","featureIndex":3,"threshold":7.01}}
{"type":"leaf","values":[59.0,2.0]}
{"type":"leaf","values":[2.0,2.0]}
{"type":"internal","split":{"type":"continuous","featureIndex":0,"threshold":32.0}}
{"type":"leaf","values":[0.0,2.0]}
{"type":"leaf","values":[5.0,0.0]}
{"type":"internal","split":{"type":"continuous","featureIndex":3,"threshold":5.13}}
{"type":"internal","split":{"type":"continuous","featureIndex":4,"threshold":12.0}}
{"type":"leaf","values":[7.0,1.0]}
{"type":"leaf","values":[0.0,5.0]}
{"type":"internal","split":{"type":"continuous","featureIndex":5,"threshold":1034.0}}
{"type":"leaf","values":[1.0,2.0]}
{"type":"leaf","values":[1.0,29.0]}
{"type":"internal","split":{"type":"continuous","featureIndex":3,"threshold":4.37}}
{"type":"internal","split":{"type":"continuous","featureIndex":1,"threshold":5570.45}}
{"type":"internal","split":{"type":"continuous","featureIndex":0,"threshold":48.0}}
{"type":"leaf","values":[0.0,3.0]}
{"type":"leaf","values":[1.0,0.0]}
{"type":"internal","split":{"type":"continuous","featureIndex":0,"threshold":51.0}}
{"type":"internal","split":{"type":"continuous","featureIndex":4,"threshold":10.0}}
{"type":"leaf","values":[19.0,0.0]}
{"type":"leaf","values":[2.0,2.0]}
{"type":"internal","split":{"type":"continuous","featureIndex":5,"threshold":1117.0}}
{"type":"leaf","values":[0.0,2.0]}
{"type":"leaf","values":[1.0,0.0]}
{"type":"internal","split":{"type":"continuous","featureIndex":4,"threshold":8.0}}
{"type":"internal","split":{"type":"continuous","featureIndex":3,"threshold":5.13}}
{"type":"internal","split":{"type":"continuous","featureIndex":3,"threshold":5.01}}
{"type":"leaf","values":[7.0,0.0]}
{"type":"leaf","values":[0.0,2.0]}
{"type":"internal","split":{"type":"continuous","featureIndex":1,"threshold":5570.45}}
{"type":"leaf","values":[0.0,1.0]}
{"type":"leaf","values":[29.0,1.0]}
{"type":"internal","split":{"type":"continuous","featureIndex":1,"threshold":12458.8}}
{"type":"internal","split":{"type":"continuous","featureIndex":1,"threshold":7193.84}}
{"type":"leaf","values":[3.0,2.0]}
{"type":"leaf","values":[12.0,50.0]}
{"type":"internal","split":{"type":"continuous","featureIndex":5,"threshold":1606.0}}
{"type":"leaf","values":[3.0,0.0]}
{"type":"leaf","values":[2.0,4.0]}
