{"type":"internal","split":{"type":"continuous","featureIndex":0,"threshold":48.0}}
{"type":"internal","split":{"type":"continuous","featureIndex":5,"threshold":1749.0}}
{"type":"internal","split":{"type":"continuous","featureIndex":1,"threshold":11274.98}}
{"type":"internal","split":{"type":"continuous","featureIndex":3,"threshold":5.41}}
{"type":"internal","split":{"type":"continuous","featureIndex":4,"threshold":9.0}}
{"type":"leaf","values":[65.0,0.0]}
{"type":"leaf","values":[20.0,3.0]}
{"type":"internal","split":{"type":"continuous","featureIndex":4,"threshold":9.0}}
{"type":"leaf","values":[44.0,4.0]}
{"type":"leaf","values":[17.0,10.0]}
{"type":"internal","split":{"type":"continuous","featureIndex":3,"threshold":6.5}}
{"type":"internal","split":{"type":"continuous","featureIndex":0,"threshold":30.0}}
{"type":"leaf","values":[1.0,1.0]}
{"type":"leaf","values":[74.0,0.0]}
{"type":"internal","split":{"type":"continuous","featureIndex":5,"threshold":639.0}}
{"type":"leaf","values":[3.0,1.0]}
{"type":"leaf","values":[0.0,2.0]}
{"type":"internal","split":{"type":"continuous","featureIndex":4,"threshold":10.0}}
{"type":"internal","split":{"type":"continuous","featureIndex":0,"threshold":37.0}}
{"type":"internal","split":{"type":"continuous","featureIndex":0,"threshold":35.0}}
{"type":"leaf","values":[57.0,2.0]}
{"type":"leaf","values":[26.0,13.0]}
{"type":"internal","split":{"type":"continuous","featureIndex":0,"threshold":42.0}}
{"type":"leaf","values":[97.0,1.0]}
{"type":"leaf","values":[115.0,10.0]}
{"type":"internal","split":{"type":"continuous","featureIndex":3,"threshold":4.56}}
{"type":"internal","split":{"type":"continuous","featureIndex":1,"threshold":5515.09}}
{"type":"leaf","values":[0.0,1.0]}
{"type":"leaf","values":[12.0,1.0]}
{"type":"internal","split":{"type":"continuous","featureIndex":1,"threshold":8092.13}}
{"type":"leaf","values":[5.0,3.0]}
{"type":"leaf","values":[5.0,26.0]}
{"type":"internal","split":{"type":"continuous","featureIndex":1,"threshold":10399.19}}
{"type":"internal","split":{"type":"continuous","featureIndex":5,"threshold":3935.0}}
{"type":"internal","split":{"type":"continuous","featureIndex":4,"threshold":10.0}}
{"type":"internal","split":{"type":"continuous","featureIndex":4,"threshold":8.0}}
{"type":"leaf","values":[51.0,1.0]}
{"type":"leaf","values":[12.0,3.0]}
{"type":"internal","split":{"type":"continuous","featureIndex":0,"threshold":49.0}}
{"type":"leaf","values":[3.0,0.0]}
{"type":"leaf","values":[1.0,6.0]}
{"type":"leaf","values":[0.0,6.0]}
{"type":"internal","split":{"type":"continuous","featureIndex":4,"threshold":8.0}}
{"type":"internal","split":{"type":"continuous","featureIndex":1,"threshold":13547.39}}
{"type":"leaf","values":[14.0,0.0]}
{"type":"internal","split":{"type":"continuous","featureIndex":5,"threshold":2543.0}}
{"type":"leaf","values":[1.0,0.0]}
{"type":"leaf","values":[0.0,2.0]}
{"type":"internal","split":{"type":"continuous","featureIndex":3,"threshold":5.98}}
{"type":"internal","split":{"type":"continuous","featureIndex":5,"threshold":1311.0}}
{"type":"leaf","values":[5.0,3.0]}
{"type":"leaf","values":[1.0,8.0]}
{"type":"leaf","values":[0.0,11.0]}
