{"type":"internal","split":{"type":"continuous","featureIndex":3,"threshold":5.41}}
{"type":"internal","split":{"type":"continuous","featureIndex":4,"threshold":10.0}}
{"type":"internal","split":{"type":"continuous","featureIndex":4,"threshold":9.0}}
{"type":"internal","split":{"type":"continuous","featureIndex":3,"threshold":4.83}}
{"type":"internal","split":{"type":"continuous","featureIndex":5,"threshold":3600.0}}
{"type":"leaf","values":[171.0,0.0]}
{"type":"leaf","values":[30.0,2.0]}
{"type":"internal","split":{"type":"continuous","featureIndex":3,"threshold":4.92}}
{"type":"leaf","values":[7.0,2.0]}
{"type":"leaf","values":[102.0,3.0]}
{"type":"internal","split":{"type":"continuous","featureIndex":2,"threshold":0.0}}
{"type":"leaf","values":[27.0,0.0]}
{"type":"internal","split":{"type":"continuous","featureIndex":0,"threshold":45.0}}
{"type":"leaf","values":[15.0,3.0]}
{"type":"leaf","values":[0.0,3.0]}
{"type":"internal","split":{"type":"continuous","featureIndex":5,"threshold":2896.0}}
{"type":"internal","split":{"type":"continuous","featureIndex":0,"threshold":49.0}}
{"type":"internal","split":{"type":"continuous","featureIndex":2,"threshold":0.0}}
{"type":"leaf","values":[12.0,0.0]}
{"type":"leaf","values":[3.0,9.0]}
{"type":"leaf","values":[0.0,5.0]}
{"type":"internal","split":{"type":"continuous","featureIndex":1,"threshold":12884.75}}
{"type":"leaf","values":[0.0,11.0]}
{"type":"leaf","values":[1.0,0.0]}
{"type":"internal","split":{"type":"continuous","featureIndex":4,"threshold":9.0}}
{"type":"internal","split":{"type":"continuous","featureIndex":4,"threshold":8.0}}
{"type":"internal","split":{"type":"continuous","featureIndex":4,"threshold":6.0}}
{"type":"internal","split":{"type":"continuous","featureIndex":1,"threshold":6398.91}}
{"type":"leaf","values":[1.0,3.0]}
{"type":"leaf","values":[26.0,0.0]}
{"type":"internal","split":{"type":"continuous","featureIndex":1,"threshold":5515.09}}
{"type":"leaf","values":[2.0,1.0]}
{"type":"leaf","values":[121.0,1.0]}
{"type":"internal","split":{"type":"continuous","featureIndex":5,"threshold":972.0}}
{"type":"internal","split":{"type":"continuous","featureIndex":1,"threshold":9844.79}}
{"type":"leaf","values":[2.0,9.0]}
{"type":"leaf","values":[5.0,0.0]}
{"type":"internal","split":{"type":"continuous","featureIndex":0,"threshold":43.0}}
{"type":"leaf","values":[46.0,0.0]}
{"type":"leaf","values":[5.0,8.0]}
{"type":"internal","split":{"type":"continuous","featureIndex":4,"threshold":11.0}}
{"type":"internal","split":{"type":"continuous","featureIndex":5,"threshold":1208.0}}
{"type":"internal","split":{"type":"continuous","featureIndex":4,"threshold":10.0}}
{"type":"leaf","values":[13.0,1.0]}
{"type":"leaf","values":[6.0,8.0]}
{"type":"internal","split":{"type":"continuous","featureIndex":5,"threshold":3827.0}}
{"type":"leaf","values":[30.0,44.0]}
{"type":"leaf","values":[0.0,6.0]}
{"type":"leaf","values":[0.0,23.0]}
