{"type":"internal","split":{"type":"continuous","featureIndex":3,"threshold":5.5}}
{"type":"internal","split":{"type":"continuous","featureIndex":4,"threshold":10.0}}
{"type":"internal","split":{"type":"continuous","featureIndex":3,"threshold":2.71}}
{"type":"internal","split":{"type":"continuous","featureIndex":0,"threshold":47.0}}
{"type":"leaf","values":[13.0,0.0]}
{"type":"leaf","values":[0.0,4.0]}
{"type":"internal","split":{"type":"continuous","featureIndex":4,"threshold":9.0}}
{"type":"internal","split":{"type":"continuous","featureIndex":0,"threshold":53.0}}
{"type":"leaf","values":[279.0,4.0]}
{"type":"leaf","values":[9.0,2.0]}
{"type":"internal","split":{"type":"continuous","featureIndex":0,"threshold":47.0}}
{"type":"leaf","values":[41.0,4.0]}
{"type":"leaf","values":[3.0,3.0]}
{"type":"internal","split":{"type":"continuous","featureIndex":3,"threshold":4.56}}
{"type":"internal","split":{"type":"continuous","featureIndex":0,"threshold":43.0}}
{"type":"internal","split":{"type":"continuous","featureIndex":1,"threshold":6930.95}}
{"type":"leaf","values":[0.0,1.0]}
{"type":"leaf","values":[16.0,1.0]}
{"type":"internal","split":{"type":"continuous","featureIndex":3,"threshold":4.2}}
{"type":"leaf","values":[3.0,3.0]}
{"type":"leaf","values":[0.0,3.0]}
{"type":"internal","split":{"type":"continuous","featureIndex":5,"threshold":851.0}}
{"type":"internal","split":{"type":"continuous","featureIndex":5,"threshold":467.0}}
{"type":"leaf","values":[0.0,4.0]}
{"type":"leaf","values":[2.0,1.0]}
{"type":"internal","split":{"type":"continuous","featureIndex":1,"threshold":5515.09}}
{"type":"leaf","values":[1.0,0.0]}
{"type":"leaf","values":[0.0,15.0]}
{"type":"internal","split":{"type":"continuous","featureIndex":5,"threshold":2322.0}}
{"type":"internal","split":{"type":"continuous","featureIndex":4,"threshold":11.0}}
{"type":"internal","split":{"type":"continuous","featureIndex":0,"threshold":30.0}}
{"type":"internal","split":{"type":"continuous","featureIndex":5,"threshold":729.0}}
{"type":"leaf","values":[0.0,3.0]}
{"type":"leaf","values":[1.0,0.0]}
{"type":"internal","split":{"type":"continuous","featureIndex":1,"threshold":10762.29}}
{"type":"leaf","values":[101.0,7.0]}
{"type":"leaf","values":[29.0,11.0]}
{"type":"leaf","values":[0.0,4.0]}
{"type":"internal","split":{"type":"continuous","featureIndex":5,"threshold":3358.0}}
{"type":"internal","split":{"type":"continuous","featureIndex":4,"threshold":9.0}}
{"type":"internal","split":{"type":"continuous","featureIndex":3,"threshold":6.88}}
{"type":"leaf","values":[35.0,2.0]}
{"type":"leaf","values":[4.0,5.0]}
{"type":"internal","split":{"type":"continuous","featureIndex":3,"threshold":6.88}}
{"type":"leaf","values":[5.0,26.0]}
{"type":"leaf","values":[7.0,3.0]}
{"type":"internal","split":{"type":"continuous","featureIndex":1,"threshold":14155.97}}
{"type":"internal","split":{"type":"continuous","featureIndex":4,"threshold":9.0}}
{"type":"leaf","values":[45.0,3.0]}
{"type":"leaf","values":[7.0,7.0]}
{"type":"leaf","values":[0.0,2.0]}
