{"type":"internal","split":{"type":"continuous","featureIndex":4,"threshold":9.0}}
{"type":"internal","split":{"type":"continuous","featureIndex":3,"threshold":5.01}}
{"type":"internal","split":{"type":"continuous","featureIndex":0,"threshold":43.0}}
{"type":"internal","split":{"type":"continuous","featureIndex":1,"threshold":7193.84}}
{"type":"internal","split":{"type":"continuous","featureIndex":5,"threshold":3363.0}}
{"type":"leaf","values":[6.0,0.0]}
{"type":"leaf","values":[0.0,2.0]}
{"type":"leaf","values":[32.0,0.0]}
{"type":"leaf","values":[37.0,0.0]}
{"type":"internal","split":{"type":"continuous","featureIndex":5,"threshold":3363.0}}
{"type":"internal","split":{"type":"continuous","featureIndex":1,"threshold":6569.87}}
{"type":"internal","split":{"type":"continuous","featureIndex":5,"threshold":91.0}}
{"type":"leaf","values":[2.0,0.0]}
{"type":"leaf","values":[2.0,7.0]}
{"type":"internal","split":{"type":"continuous","featureIndex":3,"threshold":6.0}}
{"type":"leaf","values":[39.0,13.0]}
{"type":"leaf","values":[40.0,3.0]}
{"type":"leaf","values":[20.0,0.0]}
{"type":"internal","split":{"type":"continuous","featureIndex":3,"threshold":5.23}}
{"type":"internal","split":{"type":"continuous","featureIndex":1,"threshold":8286.87}}
{"type":"internal","split":{"type":"continuous","featureIndex":4,"threshold":10.0}}
{"type":"leaf","values":[1.0,0.0]}
{"type":"leaf","values":[0.0,9.0]}
{"type":"internal","split":{"type":"continuous","featureIndex":4,"threshold":10.0}}
{"type":"internal","split":{"type":"continuous","featureIndex":1,"threshold":12261.79}}
{"type":"leaf","values":[16.0,1.0]}
{"type":"leaf","values":[5.0,4.0]}
{"type":"internal","split":{"type":"continuous","featureIndex":5,"threshold":1468.0}}
{"type":"leaf","values":[3.0,1.0]}
{"type":"leaf","values":[0.0,10.0]}
{"type":"internal","split":{"type":"continuous","featureIndex":4,"threshold":11.0}}
{"type":"internal","split":{"type":"continuous","featureIndex":0,"threshold":43.0}}
{"type":"internal","split":{"type":"continuous","featureIndex":3,"threshold":5.75}}
{"type":"leaf","values":[5.0,4.0]}
{"type":"leaf","values":[1.0,26.0]}
{"type":"internal","split":{"type":"continuous","featureIndex":0,"threshold":48.0}}
{"type":"leaf","values":[12.0,8.0]}
{"type":"leaf","values":[0.0,7.0]}
{"type":"leaf","values":[0.0,23.0]}
