{"type":"internal","split":{"type":"continuous","featureIndex":3,"threshold":5.23}}
{"type":"internal","split":{"type":"continuous","featureIndex":4,"threshold":9.0}}
{"type":"internal","split":{"type":"continuous","featureIndex":5,"threshold":3814.0}}
{"type":"internal","split":{"type":"continuous","featureIndex":5,"threshold":1857.0}}
{"type":"internal","split":{"type":"continuous","featureIndex":3,"threshold":5.01}}
{"type":"leaf","values":[44.0,0.0]}
{"type":"leaf","values":[6.0,2.0]}
{"type":"leaf","values":[66.0,0.0]}
{"type":"internal","split":{"type":"continuous","featureIndex":4,"threshold":8.0}}
{"type":"leaf","values":[5.0,0.0]}
{"type":"leaf","values":[0.0,2.0]}
{"type":"internal","split":{"type":"continuous","featureIndex":0,"threshold":50.0}}
{"type":"internal","split":{"type":"continuous","featureIndex":1,"threshold":8818.03}}
{"type":"internal","split":{"type":"continuous","featureIndex":0,"threshold":39.0}}
{"type":"leaf","values":[0.0,7.0]}
{"type":"leaf","values":[2.0,1.0]}
{"type":"internal","split":{"type":"continuous","featureIndex":4,"threshold":10.0}}
{"type":"leaf","values":[16.0,1.0]}
{"type":"leaf","values":[6.0,7.0]}
{"type":"leaf","values":[0.0,10.0]}
{"type":"internal","split":{"type":"continuous","featureIndex":3,"threshold":5.62}}
{"type":"internal","split":{"type":"continuous","featureIndex":0,"threshold":38.0}}
{"type":"internal","split":{"type":"continuous","featureIndex":4,"threshold":8.0}}
{"type":"internal","split":{"type":"continuous","featureIndex":1,"threshold":6569.87}}
{"type":"leaf","values":[0.0,1.0]}
{"type":"leaf","values":[2.0,0.0]}
{"type":"leaf","values":[0.0,10.0]}
{"type":"internal","split":{"type":"continuous","featureIndex":0,"threshold":40.0}}
{"type":"leaf","values":[4.0,0.0]}
{"type":"internal","split":{"type":"continuous","featureIndex":4,"threshold":8.0}}
{"type":"leaf","values":[4.0,0.0]}
{"type":"leaf","values":[0.0,9.0]}
{"type":"internal","split":{"type":"continuous","featureIndex":4,"threshold":8.0}}
{"type":"internal","split":{"type":"continuous","featureIndex":1,"threshold":13672.54}}
{"type":"internal","split":{"type":"continuous","featureIndex":1,"threshold":6569.87}}
{"type":"leaf","values":[1.0,2.0]}
{"type":"leaf","values":[41.0,0.0]}
{"type":"leaf","values":[0.0,2.0]}
{"type":"internal","split":{"type":"continuous","featureIndex":4,"threshold":11.0}}
{"type":"internal","split":{"type":"continuous","featureIndex":5,"threshold":529.0}}
{"type":"leaf","values":[0.0,6.0]}
{"type":"leaf","values":[40.0,40.0]}
{"type":"leaf","values":[0.0,10.0]}
