{"type":"internal","split":{"type":"continuous","featureIndex":5,"threshold":1742.0}}
{"type":"internal","split":{"type":"continuous","featureIndex":3,"threshold":6.22}}
{"type":"internal","split":{"type":"continuous","featureIndex":4,"threshold":8.0}}
{"type":"internal","split":{"type":"continuous","featureIndex":2,"threshold":0.0}}
{"type":"leaf","values":[45.0,0.0]}
{"type":"internal","split":{"type":"continuous","featureIndex":3,"threshold":5.13}}
{"type":"leaf","values":[6.0,0.0]}
{"type":"leaf","values":[6.0,3.0]}
{"type":"internal","split":{"type":"continuous","featureIndex":3,"threshold":5.75}}
{"type":"internal","split":{"type":"continuous","featureIndex":5,"threshold":91.0}}
{"type":"leaf","values":[0.0,1.0]}
{"type":"leaf","values":[37.0,7.0]}
{"type":"internal","split":{"type":"continuous","featureIndex":1,"threshold":10400.88}}
{"type":"leaf","values":[0.0,4.0]}
{"type":"leaf","values":[1.0,0.0]}
{"type":"internal","split":{"type":"continuous","featureIndex":4,"threshold":9.0}}
{"type":"internal","split":{"type":"continuous","featureIndex":1,"threshold":10522.21}}
{"type":"leaf","values":[6.0,0.0]}
{"type":"internal","split":{"type":"continuous","featureIndex":3,"threshold":6.57}}
{"type":"leaf","values":[1.0,0.0]}
{"type":"leaf","values":[0.0,2.0]}
{"type":"internal","split":{"type":"continuous","featureIndex":5,"threshold":1606.0}}
{"type":"internal","split":{"type":"continuous","featureIndex":0,"threshold":44.0}}
{"type":"leaf","values":[0.0,11.0]}
{"type":"leaf","values":[2.0,6.0]}
{"type":"leaf","values":[1.0,0.0]}
{"type":"internal","split":{"type":"continuous","featureIndex":3,"threshold":4.56}}
{"type":"internal","split":{"type":"continuous","featureIndex":4,"threshold":11.0}}
{"type":"leaf","values":[45.0,0.0]}
{"type":"internal","split":{"type":"continuous","featureIndex":5,"threshold":3647.0}}
{"type":"internal","split":{"type":"continuous","featureIndex":0,"threshold":36.0}}
{"type":"leaf","values":[1.0,0.0]}
{"type":"leaf","values":[0.0,6.0]}
{"type":"leaf","values":[1.0,0.0]}
{"type":"internal","split":{"type":"continuous","featureIndex":3,"threshold":4.68}}
{"type":"leaf","values":[0.0,9.0]}
{"type":"internal","split":{"type":"continuous","featureIndex":5,"threshold":3130.0}}
{"type":"internal","split":{"type":"continuous","featureIndex":3,"threshold":5.23}}
{"type":"leaf","values":[16.0,6.0]}
{"type":"leaf","values":[29.0,44.0]}
{"type":"internal","split":{"type":"continuous","featureIndex":1,"threshold":13672.54}}
{"type":"leaf","values":[46.0,15.0]}
{"type":"leaf","values":[0.0,3.0]}
