{"type":"internal","split":{"type":"continuous","featureIndex":5,"threshold":181.0}}
{"type":"internal","split":{"type":"continuous","featureIndex":4,"threshold":9.0}}
{"type":"internal","split":{"type":"continuous","featureIndex":0,"threshold":30.0}}
{"type":"leaf","values":[0.0,1.0]}
{"type":"leaf","values":[14.0,0.0]}
{"type":"internal","split":{"type":"continuous","featureIndex":0,"threshold":45.0}}
{"type":"leaf","values":[0.0,13.0]}
{"type":"leaf","values":[1.0,0.0]}
{"type":"internal","split":{"type":"continuous","featureIndex":3,"threshold":5.27}}
{"type":"internal","split":{"type":"continuous","featureIndex":4,"threshold":10.0}}
{"type":"internal","split":{"type":"continuous","featureIndex":5,"threshold":3435.0}}
{"type":"internal","split":{"type":"continuous","featureIndex":0,"threshold":51.0}}
{"type":"leaf","values":[240.0,1.0]}
{"type":"leaf","values":[7.0,2.0]}
{"type":"internal","split":{"type":"continuous","featureIndex":4,"threshold":8.0}}
{"type":"leaf","values":[28.0,1.0]}
{"type":"leaf","values":[9.0,5.0]}
{"type":"internal","split":{"type":"continuous","featureIndex":3,"threshold":4.35}}
{"type":"internal","split":{"type":"continuous","featureIndex":0,"threshold":46.0}}
{"type":"leaf","values":[14.0,0.0]}
{"type":"leaf","values":[1.0,1.0]}
{"type":"internal","split":{"type":"continuous","featureIndex":4,"threshold":11.0}}
{"type":"leaf","values":[7.0,7.0]}
{"type":"leaf","values":[0.0,6.0]}
{"type":"internal","split":{"type":"continuous","featureIndex":4,"threshold":10.0}}
{"type":"internal","split":{"type":"continuous","featureIndex":3,"threshold":6.68}}
{"type":"internal","split":{"type":"continuous","featureIndex":4,"threshold":9.0}}
{"type":"leaf","values":[165.0,9.0]}
{"type":"leaf","values":[27.0,8.0]}
{"type":"internal","split":{"type":"continuous","featureIndex":4,"threshold":8.0}}
{"type":"leaf","values":[44.0,4.0]}
{"type":"leaf","values":[22.0,21.0]}
{"type":"internal","split":{"type":"continuous","featureIndex":1,"threshold":6398.91}}
{"type":"leaf","values":[1.0,0.0]}
{"type":"internal","split":{"type":"continuous","featureIndex":4,"threshold":11.0}}
{"type":"leaf","values":[16.0,21.0]}
{"type":"leaf","values":[0.0,23.0]}
