{"type":"internal","split":{"type":"continuous","featureIndex":4,"threshold":9.0}}
{"type":"internal","split":{"type":"continuous","featureIndex":3,"threshold":5.59}}
{"type":"internal","split":{"type":"continuous","featureIndex":5,"threshold":181.0}}
{"type":"internal","split":{"type":"continuous","featureIndex":3,"threshold":5.07}}
{"type":"leaf","values":[6.0,0.0]}
{"type":"leaf","values":[0.0,1.0]}
{"type":"internal","split":{"type":"continuous","featureIndex":5,"threshold":3935.0}}
{"type":"internal","split":{"type":"continuous","featureIndex":4,"threshold":8.0}}
{"type":"leaf","values":[185.0,0.0]}
{"type":"leaf","values":[72.0,1.0]}
{"type":"internal","split":{"type":"continuous","featureIndex":0,"threshold":44.0}}
{"type":"leaf","values":[8.0,0.0]}
{"type":"leaf","values":[1.0,1.0]}
{"type":"internal","split":{"type":"continuous","featureIndex":5,"threshold":972.0}}
{"type":"internal","split":{"type":"continuous","featureIndex":5,"threshold":467.0}}
{"type":"internal","split":{"type":"continuous","featureIndex":1,"threshold":5515.09}}
{"type":"leaf","values":[0.0,1.0]}
{"type":"leaf","values":[19.0,0.0]}
{"type":"internal","split":{"type":"continuous","featureIndex":1,"threshold":9844.79}}
{"type":"leaf","values":[3.0,10.0]}
{"type":"leaf","values":[7.0,0.0]}
{"type":"internal","split":{"type":"continuous","featureIndex":4,"threshold":8.0}}
{"type":"internal","split":{"type":"continuous","featureIndex":1,"threshold":12043.27}}
{"type":"leaf","values":[91.0,1.0]}
{"type":"leaf","values":[13.0,2.0]}
{"type":"internal","split":{"type":"continuous","featureIndex":3,"threshold":6.88}}
{"type":"leaf","values":[39.0,1.0]}
{"type":"leaf","values":[10.0,8.0]}
{"type":"internal","split":{"type":"continuous","featureIndex":3,"threshold":5.15}}
{"type":"internal","split":{"type":"continuous","featureIndex":2,"threshold":0.0}}
{"type":"internal","split":{"type":"continuous","featureIndex":3,"threshold":4.2}}
{"type":"leaf","values":[30.0,0.0]}
{"type":"internal","split":{"type":"continuous","featureIndex":3,"threshold":4.35}}
{"type":"leaf","values":[0.0,1.0]}
{"type":"leaf","values":[23.0,3.0]}
{"type":"internal","split":{"type":"continuous","featureIndex":4,"threshold":10.0}}
{"type":"internal","split":{"type":"continuous","featureIndex":5,"threshold":3272.0}}
{"type":"leaf","values":[22.0,8.0]}
{"type":"leaf","values":[0.0,3.0]}
{"type":"internal","split":{"type":"continuous","featureIndex":1,"threshold":10026.44}}
{"type":"leaf","values":[1.0,9.0]}
{"type":"leaf","values":[2.0,1.0]}
{"type":"internal","split":{"type":"continuous","featureIndex":1,"threshold":6398.91}}
{"type":"leaf","values":[2.0,0.0]}
{"type":"internal","split":{"type":"continuous","featureIndex":4,"threshold":10.0}}
{"type":"internal","split":{"type":"continuous","featureIndex":5,"threshold":639.0}}
{"type":"leaf","values":[5.0,0.0]}
{"type":"leaf","values":[17.0,20.0]}
{"type":"internal","split":{"type":"continuous","featureIndex":1,"threshold":12531.39}}
{"type":"leaf","values":[14.0,53.0]}
{"type":"leaf","values":[0.0,11.0]}
