{
  "name": "VectorAssembler_49f091eb9b4bf5a676aa",
  "shape": {
    "inputs": [{
      "port": "input0",
      "name": "Age"
    }, {
      "port": "input1",
      "name": "Total_Purchase"
    }, {
      "port": "input2",
      "name": "Account_Manager"
    }, {
      "port": "input3",
      "name": "Years"
    }, {
      "port": "input4",
      "name": "Num_sites"
    }, {
      "port": "input5",
      "name": "Onboard_date_diff"
    }],
    "outputs": [{
      "port": "output",
      "name": "features"
    }]
  }
}