{"type":"internal","split":{"type":"continuous","featureIndex":4,"threshold":9.0}}
{"type":"internal","split":{"type":"continuous","featureIndex":4,"threshold":8.0}}
{"type":"internal","split":{"type":"continuous","featureIndex":1,"threshold":8099.29}}
{"type":"internal","split":{"type":"continuous","featureIndex":3,"threshold":5.39}}
{"type":"leaf","values":[11.0,0.0]}
{"type":"internal","split":{"type":"continuous","featureIndex":1,"threshold":7896.65}}
{"type":"leaf","values":[9.0,2.0]}
{"type":"leaf","values":[0.0,2.0]}
{"type":"internal","split":{"type":"continuous","featureIndex":5,"threshold":91.0}}
{"type":"internal","split":{"type":"continuous","featureIndex":3,"threshold":5.13}}
{"type":"leaf","values":[1.0,0.0]}
{"type":"leaf","values":[0.0,1.0]}
{"type":"internal","split":{"type":"continuous","featureIndex":0,"threshold":53.0}}
{"type":"leaf","values":[96.0,1.0]}
{"type":"leaf","values":[9.0,2.0]}
{"type":"internal","split":{"type":"continuous","featureIndex":0,"threshold":43.0}}
{"type":"internal","split":{"type":"continuous","featureIndex":0,"threshold":32.0}}
{"type":"internal","split":{"type":"continuous","featureIndex":1,"threshold":5570.45}}
{"type":"leaf","values":[1.0,0.0]}
{"type":"leaf","values":[1.0,5.0]}
{"type":"internal","split":{"type":"continuous","featureIndex":5,"threshold":2854.0}}
{"type":"leaf","values":[24.0,0.0]}
{"type":"leaf","values":[15.0,1.0]}
{"type":"internal","split":{"type":"continuous","featureIndex":0,"threshold":50.0}}
{"type":"internal","split":{"type":"continuous","featureIndex":3,"threshold":4.78}}
{"type":"leaf","values":[4.0,0.0]}
{"type":"leaf","values":[5.0,11.0]}
{"type":"leaf","values":[3.0,0.0]}
{"type":"internal","split":{"type":"continuous","featureIndex":0,"threshold":32.0}}
{"type":"internal","split":{"type":"continuous","featureIndex":3,"threshold":5.75}}
{"type":"leaf","values":[6.0,0.0]}
{"type":"internal","split":{"type":"continuous","featureIndex":0,"threshold":31.0}}
{"type":"leaf","values":[0.0,1.0]}
{"type":"leaf","values":[3.0,0.0]}
{"type":"internal","split":{"type":"continuous","featureIndex":3,"threshold":5.75}}
{"type":"internal","split":{"type":"continuous","featureIndex":4,"threshold":11.0}}
{"type":"internal","split":{"type":"continuous","featureIndex":0,"threshold":51.0}}
{"type":"leaf","values":[31.0,10.0]}
{"type":"leaf","values":[0.0,5.0]}
{"type":"internal","split":{"type":"continuous","featureIndex":0,"threshold":37.0}}
{"type":"leaf","values":[3.0,5.0]}
{"type":"leaf","values":[0.0,12.0]}
{"type":"internal","split":{"type":"continuous","featureIndex":3,"threshold":7.94}}
{"type":"internal","split":{"type":"continuous","featureIndex":1,"threshold":6569.87}}
{"type":"leaf","values":[2.0,0.0]}
{"type":"leaf","values":[3.0,48.0]}
{"type":"leaf","values":[1.0,0.0]}
