{"type":"internal","split":{"type":"continuous","featureIndex":3,"threshold":5.41}}
{"type":"internal","split":{"type":"continuous","featureIndex":4,"threshold":10.0}}
{"type":"internal","split":{"type":"continuous","featureIndex":4,"threshold":9.0}}
{"type":"internal","split":{"type":"continuous","featureIndex":3,"threshold":5.0}}
{"type":"internal","split":{"type":"continuous","featureIndex":5,"threshold":3600.0}}
{"type":"leaf","values":[185.0,0.0]}
{"type":"leaf","values":[27.0,2.0]}
{"type":"internal","split":{"type":"continuous","featureIndex":2,"threshold":0.0}}
{"type":"leaf","values":[23.0,4.0]}
{"type":"leaf","values":[41.0,1.0]}
{"type":"internal","split":{"type":"continuous","featureIndex":5,"threshold":181.0}}
{"type":"leaf","values":[0.0,2.0]}
{"type":"internal","split":{"type":"continuous","featureIndex":5,"threshold":3272.0}}
{"type":"leaf","values":[49.0,3.0]}
{"type":"leaf","values":[7.0,4.0]}
{"type":"internal","split":{"type":"continuous","featureIndex":0,"threshold":35.0}}
{"type":"internal","split":{"type":"continuous","featureIndex":4,"threshold":11.0}}
{"type":"internal","split":{"type":"continuous","featureIndex":1,"threshold":12531.39}}
{"type":"leaf","values":[0.0,2.0]}
{"type":"leaf","values":[2.0,0.0]}
{"type":"leaf","values":[0.0,5.0]}
{"type":"internal","split":{"type":"continuous","featureIndex":3,"threshold":4.56}}
{"type":"internal","split":{"type":"continuous","featureIndex":1,"threshold":6930.95}}
{"type":"leaf","values":[0.0,1.0]}
{"type":"leaf","values":[23.0,2.0]}
{"type":"internal","split":{"type":"continuous","featureIndex":1,"threshold":5515.09}}
{"type":"leaf","values":[1.0,1.0]}
{"type":"leaf","values":[1.0,9.0]}
{"type":"internal","split":{"type":"continuous","featureIndex":0,"threshold":54.0}}
{"type":"internal","split":{"type":"continuous","featureIndex":4,"threshold":9.0}}
{"type":"internal","split":{"type":"continuous","featureIndex":4,"threshold":8.0}}
{"type":"internal","split":{"type":"continuous","featureIndex":1,"threshold":6398.91}}
{"type":"leaf","values":[9.0,1.0]}
{"type":"leaf","values":[121.0,1.0]}
{"type":"internal","split":{"type":"continuous","featureIndex":3,"threshold":5.88}}
{"type":"leaf","values":[28.0,10.0]}
{"type":"leaf","values":[34.0,5.0]}
{"type":"internal","split":{"type":"continuous","featureIndex":4,"threshold":11.0}}
{"type":"internal","split":{"type":"continuous","featureIndex":3,"threshold":5.88}}
{"type":"leaf","values":[18.0,7.0]}
{"type":"leaf","values":[26.0,40.0]}
{"type":"internal","split":{"type":"continuous","featureIndex":1,"threshold":7778.73}}
{"type":"leaf","values":[2.0,1.0]}
{"type":"leaf","values":[0.0,22.0]}
{"type":"internal","split":{"type":"continuous","featureIndex":4,"threshold":8.0}}
{"type":"leaf","values":[5.0,0.0]}
{"type":"leaf","values":[0.0,8.0]}
