{"type":"internal","split":{"type":"continuous","featureIndex":4,"threshold":10.0}}
{"type":"internal","split":{"type":"continuous","featureIndex":0,"threshold":54.0}}
{"type":"internal","split":{"type":"continuous","featureIndex":3,"threshold":6.68}}
{"type":"internal","split":{"type":"continuous","featureIndex":0,"threshold":48.0}}
{"type":"internal","split":{"type":"continuous","featureIndex":5,"threshold":181.0}}
{"type":"leaf","values":[17.0,3.0]}
{"type":"leaf","values":[441.0,11.0]}
{"type":"internal","split":{"type":"continuous","featureIndex":0,"threshold":50.0}}
{"type":"leaf","values":[33.0,8.0]}
{"type":"leaf","values":[29.0,0.0]}
{"type":"internal","split":{"type":"continuous","featureIndex":1,"threshold":5515.09}}
{"type":"leaf","values":[0.0,2.0]}
{"type":"internal","split":{"type":"continuous","featureIndex":0,"threshold":42.0}}
{"type":"leaf","values":[36.0,9.0]}
{"type":"leaf","values":[30.0,1.0]}
{"type":"internal","split":{"type":"continuous","featureIndex":5,"threshold":1432.0}}
{"type":"leaf","values":[7.0,0.0]}
{"type":"internal","split":{"type":"continuous","featureIndex":3,"threshold":5.5}}
{"type":"leaf","values":[3.0,0.0]}
{"type":"leaf","values":[0.0,9.0]}
{"type":"internal","split":{"type":"continuous","featureIndex":5,"threshold":3065.0}}
{"type":"internal","split":{"type":"continuous","featureIndex":5,"threshold":2543.0}}
{"type":"internal","split":{"type":"continuous","featureIndex":4,"threshold":11.0}}
{"type":"internal","split":{"type":"continuous","featureIndex":1,"threshold":7460.05}}
{"type":"leaf","values":[0.0,6.0]}
{"type":"leaf","values":[13.0,13.0]}
{"type":"leaf","values":[0.0,9.0]}
{"type":"internal","split":{"type":"continuous","featureIndex":1,"threshold":6930.95}}
{"type":"leaf","values":[0.0,1.0]}
{"type":"leaf","values":[12.0,0.0]}
{"type":"internal","split":{"type":"continuous","featureIndex":1,"threshold":12531.39}}
{"type":"internal","split":{"type":"continuous","featureIndex":5,"threshold":3435.0}}
{"type":"internal","split":{"type":"continuous","featureIndex":5,"threshold":3272.0}}
{"type":"leaf","values":[0.0,8.0]}
{"type":"leaf","values":[4.0,1.0]}
{"type":"leaf","values":[0.0,17.0]}
{"type":"leaf","values":[4.0,0.0]}
