{"type":"internal","split":{"type":"continuous","featureIndex":0,"threshold":48.0}}
{"type":"internal","split":{"type":"continuous","featureIndex":4,"threshold":10.0}}
{"type":"internal","split":{"type":"continuous","featureIndex":3,"threshold":5.59}}
{"type":"internal","split":{"type":"continuous","featureIndex":3,"threshold":4.35}}
{"type":"internal","split":{"type":"continuous","featureIndex":3,"threshold":4.08}}
{"type":"leaf","values":[87.0,0.0]}
{"type":"leaf","values":[38.0,1.0]}
{"type":"internal","split":{"type":"continuous","featureIndex":4,"threshold":9.0}}
{"type":"leaf","values":[158.0,6.0]}
{"type":"leaf","values":[24.0,4.0]}
{"type":"internal","split":{"type":"continuous","featureIndex":4,"threshold":8.0}}
{"type":"internal","split":{"type":"continuous","featureIndex":2,"threshold":0.0}}
{"type":"leaf","values":[45.0,2.0]}
{"type":"leaf","values":[50.0,0.0]}
{"type":"internal","split":{"type":"continuous","featureIndex":0,"threshold":30.0}}
{"type":"leaf","values":[1.0,3.0]}
{"type":"leaf","values":[80.0,26.0]}
{"type":"internal","split":{"type":"continuous","featureIndex":3,"threshold":4.56}}
{"type":"internal","split":{"type":"continuous","featureIndex":1,"threshold":6930.95}}
{"type":"leaf","values":[0.0,2.0]}
{"type":"internal","split":{"type":"continuous","featureIndex":5,"threshold":3435.0}}
{"type":"leaf","values":[10.0,0.0]}
{"type":"leaf","values":[1.0,1.0]}
{"type":"internal","split":{"type":"continuous","featureIndex":5,"threshold":3272.0}}
{"type":"internal","split":{"type":"continuous","featureIndex":1,"threshold":8092.13}}
{"type":"leaf","values":[6.0,3.0]}
{"type":"leaf","values":[5.0,28.0]}
{"type":"leaf","values":[0.0,13.0]}
{"type":"internal","split":{"type":"continuous","featureIndex":1,"threshold":8556.73}}
{"type":"internal","split":{"type":"continuous","featureIndex":5,"threshold":3935.0}}
{"type":"internal","split":{"type":"continuous","featureIndex":4,"threshold":11.0}}
{"type":"internal","split":{"type":"continuous","featureIndex":3,"threshold":6.68}}
{"type":"leaf","values":[23.0,0.0]}
{"type":"leaf","values":[5.0,1.0]}
{"type":"leaf","values":[0.0,1.0]}
{"type":"leaf","values":[0.0,1.0]}
{"type":"internal","split":{"type":"continuous","featureIndex":0,"threshold":50.0}}
{"type":"internal","split":{"type":"continuous","featureIndex":4,"threshold":8.0}}
{"type":"leaf","values":[7.0,0.0]}
{"type":"internal","split":{"type":"continuous","featureIndex":1,"threshold":9282.33}}
{"type":"leaf","values":[1.0,0.0]}
{"type":"leaf","values":[2.0,20.0]}
{"type":"internal","split":{"type":"continuous","featureIndex":0,"threshold":54.0}}
{"type":"internal","split":{"type":"continuous","featureIndex":3,"threshold":2.71}}
{"type":"leaf","values":[0.0,2.0]}
{"type":"leaf","values":[17.0,3.0]}
{"type":"internal","split":{"type":"continuous","featureIndex":0,"threshold":58.0}}
{"type":"leaf","values":[3.0,11.0]}
{"type":"leaf","values":[2.0,0.0]}
