{"type":"internal","split":{"type":"continuous","featureIndex":4,"threshold":10.0}}
{"type":"internal","split":{"type":"continuous","featureIndex":4,"threshold":9.0}}
{"type":"internal","split":{"type":"continuous","featureIndex":3,"threshold":5.07}}
{"type":"internal","split":{"type":"continuous","featureIndex":1,"threshold":6930.95}}
{"type":"internal","split":{"type":"continuous","featureIndex":0,"threshold":41.0}}
{"type":"leaf","values":[23.0,0.0]}
{"type":"leaf","values":[10.0,2.0]}
{"type":"internal","split":{"type":"continuous","featureIndex":1,"threshold":12284.58}}
{"type":"leaf","values":[143.0,0.0]}
{"type":"leaf","values":[42.0,1.0]}
{"type":"internal","split":{"type":"continuous","featureIndex":4,"threshold":8.0}}
{"type":"internal","split":{"type":"continuous","featureIndex":1,"threshold":6398.91}}
{"type":"leaf","values":[18.0,6.0]}
{"type":"leaf","values":[178.0,6.0]}
{"type":"internal","split":{"type":"continuous","featureIndex":5,"threshold":3935.0}}
{"type":"leaf","values":[56.0,12.0]}
{"type":"leaf","values":[2.0,4.0]}
{"type":"internal","split":{"type":"continuous","featureIndex":3,"threshold":5.77}}
{"type":"internal","split":{"type":"continuous","featureIndex":5,"threshold":181.0}}
{"type":"leaf","values":[0.0,1.0]}
{"type":"internal","split":{"type":"continuous","featureIndex":1,"threshold":8878.96}}
{"type":"leaf","values":[6.0,2.0]}
{"type":"leaf","values":[61.0,3.0]}
{"type":"internal","split":{"type":"continuous","featureIndex":1,"threshold":8092.13}}
{"type":"leaf","values":[3.0,0.0]}
{"type":"internal","split":{"type":"continuous","featureIndex":0,"threshold":52.0}}
{"type":"leaf","values":[16.0,22.0]}
{"type":"leaf","values":[0.0,5.0]}
{"type":"internal","split":{"type":"continuous","featureIndex":3,"threshold":4.08}}
{"type":"internal","split":{"type":"continuous","featureIndex":1,"threshold":5515.09}}
{"type":"leaf","values":[0.0,2.0]}
{"type":"leaf","values":[17.0,0.0]}
{"type":"internal","split":{"type":"continuous","featureIndex":4,"threshold":11.0}}
{"type":"internal","split":{"type":"continuous","featureIndex":1,"threshold":8878.96}}
{"type":"internal","split":{"type":"continuous","featureIndex":5,"threshold":729.0}}
{"type":"leaf","values":[0.0,12.0]}
{"type":"leaf","values":[8.0,13.0]}
{"type":"internal","split":{"type":"continuous","featureIndex":5,"threshold":851.0}}
{"type":"leaf","values":[13.0,3.0]}
{"type":"leaf","values":[6.0,18.0]}
{"type":"internal","split":{"type":"continuous","featureIndex":3,"threshold":4.56}}
{"type":"internal","split":{"type":"continuous","featureIndex":0,"threshold":36.0}}
{"type":"leaf","values":[1.0,0.0]}
{"type":"leaf","values":[0.0,1.0]}
{"type":"leaf","values":[0.0,30.0]}
