{"type":"internal","split":{"type":"continuous","featureIndex":4,"threshold":10.0}}
{"type":"internal","split":{"type":"continuous","featureIndex":4,"threshold":9.0}}
{"type":"internal","split":{"type":"continuous","featureIndex":4,"threshold":8.0}}
{"type":"internal","split":{"type":"continuous","featureIndex":1,"threshold":6398.91}}
{"type":"internal","split":{"type":"continuous","featureIndex":3,"threshold":6.11}}
{"type":"leaf","values":[25.0,2.0]}
{"type":"leaf","values":[1.0,2.0]}
{"type":"internal","split":{"type":"continuous","featureIndex":0,"threshold":41.0}}
{"type":"leaf","values":[176.0,1.0]}
{"type":"leaf","values":[160.0,8.0]}
{"type":"internal","split":{"type":"continuous","featureIndex":3,"threshold":5.69}}
{"type":"internal","split":{"type":"continuous","featureIndex":1,"threshold":13547.39}}
{"type":"leaf","values":[84.0,2.0]}
{"type":"leaf","values":[3.0,1.0]}
{"type":"internal","split":{"type":"continuous","featureIndex":0,"threshold":48.0}}
{"type":"leaf","values":[42.0,6.0]}
{"type":"leaf","values":[2.0,6.0]}
{"type":"internal","split":{"type":"continuous","featureIndex":3,"threshold":5.88}}
{"type":"internal","split":{"type":"continuous","featureIndex":0,"threshold":49.0}}
{"type":"internal","split":{"type":"continuous","featureIndex":0,"threshold":30.0}}
{"type":"leaf","values":[1.0,1.0]}
{"type":"leaf","values":[60.0,1.0]}
{"type":"internal","split":{"type":"continuous","featureIndex":0,"threshold":50.0}}
{"type":"leaf","values":[0.0,4.0]}
{"type":"leaf","values":[3.0,3.0]}
{"type":"internal","split":{"type":"continuous","featureIndex":5,"threshold":1311.0}}
{"type":"internal","split":{"type":"continuous","featureIndex":3,"threshold":6.11}}
{"type":"leaf","values":[5.0,0.0]}
{"type":"leaf","values":[7.0,3.0]}
{"type":"internal","split":{"type":"continuous","featureIndex":0,"threshold":44.0}}
{"type":"leaf","values":[3.0,14.0]}
{"type":"leaf","values":[4.0,2.0]}
{"type":"internal","split":{"type":"continuous","featureIndex":1,"threshold":10530.33}}
{"type":"internal","split":{"type":"continuous","featureIndex":4,"threshold":11.0}}
{"type":"internal","split":{"type":"continuous","featureIndex":5,"threshold":2543.0}}
{"type":"internal","split":{"type":"continuous","featureIndex":5,"threshold":467.0}}
{"type":"leaf","values":[2.0,0.0]}
{"type":"leaf","values":[3.0,25.0]}
{"type":"internal","split":{"type":"continuous","featureIndex":3,"threshold":6.68}}
{"type":"leaf","values":[11.0,1.0]}
{"type":"leaf","values":[1.0,3.0]}
{"type":"internal","split":{"type":"continuous","featureIndex":0,"threshold":38.0}}
{"type":"internal","split":{"type":"continuous","featureIndex":1,"threshold":7778.73}}
{"type":"leaf","values":[2.0,0.0]}
{"type":"leaf","values":[0.0,11.0]}
{"type":"leaf","values":[0.0,21.0]}
{"type":"internal","split":{"type":"continuous","featureIndex":3,"threshold":4.08}}
{"type":"leaf","values":[10.0,0.0]}
{"type":"internal","split":{"type":"continuous","featureIndex":3,"threshold":5.69}}
{"type":"internal","split":{"type":"continuous","featureIndex":0,"threshold":40.0}}
{"type":"leaf","values":[9.0,2.0]}
{"type":"leaf","values":[0.0,9.0]}
{"type":"internal","split":{"type":"continuous","featureIndex":5,"threshold":2150.0}}
{"type":"leaf","values":[0.0,7.0]}
{"type":"leaf","values":[2.0,5.0]}
